Data Handling: Import, Cleaning and Visualisation
…
## New names:
## * Rank -> Rank...1
## * Name -> Name...2
## * Count -> Count...3
## * `since 2014` -> `since 2014...4`
## * `since 2005` -> `since 2005...5`
## * ...

# inspect
boys

## # A tibble: 61 x 11
##    Rank...1 Name...2 Count...3 `since 2014...4` `since 2005...5` ...6  Rank...7 Name...8 Count...9
##    <chr>    <chr>        <dbl> <chr>            <chr>            <lgl> <chr>    <chr>        <dbl>
##  1 <NA>     <NA>            NA <NA>             <NA>             NA    <NA>     <NA>            NA
##  2 1        OLIVER        6941                 +4              NA    51       REUBEN        1188
##  3 2        JACK          5371                 -1              NA    52       HARLEY        1175
##  4 3        HARRY         5308                 +6              NA    53       LUCA          1167
##  5 4        GEORGE        4869 +3              +13             NA    54       MICHAEL       1165
##  6 5        JACOB         4850 -1              +16             NA    55       HUGO          1153
##  7 6        CHARLIE       4831 -1              +6              NA    56       LEWIS         1148
##  8 7        NOAH          4148 +4              +44             NA    57       FRANKIE       1112
##  9 8        WILLIAM       4083 +2                              NA    58       LUKE          1095
## 10 9        THOMAS        4075 -3              -6              NA    59       STANLEY       1078
## #  with 51 more rows, and 2 more variables: `since 2014...10` <chr>, `since 2005...11` <chr>
…
## New names:
## * Rank...1 -> Rank
## * Name...2 -> Name
## * Count...3 -> Count

## New names:
## * Rank...7 -> Rank
## * Name...8 -> Name
## * Count...9 -> Count

# inspect result
boys_long

## # A tibble: 114 x 3
##    Rank  Name    Count
##    <chr> <chr>   <dbl>
##  1 1     OLIVER   6941
##  2 2     JACK     5371
##  3 3     HARRY    5308
##  4 4     GEORGE   4869
##  5 5     JACOB    4850
##  6 6     CHARLIE  4831
##  7 7     NOAH     4148
##  8 8     WILLIAM  4083
##  9 9     THOMAS   4075
## 10 10    OSCAR    4066
## #  with 104 more rows
…
