…
In either case, the result is a `tibble`: 

```r
swiss
```

```
## # A tibble: 47 x 7
##    District Fertility Agriculture Examination Education
##    <chr>        <dbl>       <dbl>       <dbl>     <dbl>
##  1 Courtel~      80.2        17            15        12
##  2 Delemont      83.1        45.1           6         9
##  3 Franche~      92.5        39.7           5         5
##  4 Moutier       85.8        36.5          12         7
##  5 Neuvevi~      76.9        43.5          17        15
##  6 Porrent~      76.1        35.3           9         7
##  7 Broye         83.8        70.2          16         7
##  8 Glane         92.4        67.8          14         8
##  9 Gruyere       82.4        53.3          12         7
## 10 Sarine        82.9        45.2          16        13
## # ... with 37 more rows, and 2 more variables:
## #   Catholic <dbl>, Infant.Mortality <dbl>
```
…
```r
# inspect
boys
```

```
## # A tibble: 61 x 11
##    Rank...1 Name...2 Count...3 `since 2014...4`
##    <chr>    <chr>        <dbl> <chr>           
##  1 <NA>     <NA>            NA <NA>            
##  2 1        OLIVER        6941 ­                
##  3 2        JACK          5371 ­                
##  4 3        HARRY         5308 ­                
##  5 4        GEORGE        4869 +3              
##  6 5        JACOB         4850 -1              
##  7 6        CHARLIE       4831 -1              
##  8 7        NOAH          4148 +4              
##  9 8        WILLIAM       4083 +2              
## 10 9        THOMAS        4075 -3              
## # ... with 51 more rows, and 7 more variables:
## #   `since 2005...5` <chr>, ...6 <lgl>,
## #   Rank...7 <chr>, Name...8 <chr>, Count...9 <dbl>,
## #   `since 2014...10` <chr>, `since 2005...11` <chr>
```
…
```
## New names:
## New names:
## * `Rank...1` -> `Rank`
## * `Name...2` -> `Name`
## * `Count...3` -> `Count`
```

```r
# inspect result
boys_long
```

```
## # A tibble: 114 x 3
##    Rank  Name    Count
##    <chr> <chr>   <dbl>
##  1 1     OLIVER   6941
##  2 2     JACK     5371
##  3 3     HARRY    5308
##  4 4     GEORGE   4869
##  5 5     JACOB    4850
##  6 6     CHARLIE  4831
##  7 7     NOAH     4148
##  8 8     WILLIAM  4083
##  9 9     THOMAS   4075
## 10 10    OSCAR    4066
## # ... with 104 more rows
```
…
