Chapter 6 Data Sources, Data Gathering, Data Import | Data Handling
…
In either case, the result is a tibble:

swiss

## # A tibble: 47 x 7
##    District Fertility Agriculture Examination Education
##    <chr>        <dbl>       <dbl>       <dbl>     <dbl>
##  1 Courtel…      80.2        17            15        12
##  2 Delemont      83.1        45.1           6         9
##  3 Franche…      92.5        39.7           5         5
##  4 Moutier       85.8        36.5          12         7
##  5 Neuvevi…      76.9        43.5          17        15
##  6 Porrent…      76.1        35.3           9         7
##  7 Broye         83.8        70.2          16         7
##  8 Glane         92.4        67.8          14         8
##  9 Gruyere       82.4        53.3          12         7
## 10 Sarine        82.9        45.2          16        13
## # … with 37 more rows, and 2 more variables:
## #   Catholic <dbl>, Infant.Mortality <dbl>
…
